<?xml version="1.0" encoding="utf-8"?>
<!-- Generator: Adobe Illustrator 19.1.1, SVG Export Plug-In . SVG Version: 6.00 Build 0)  -->
<svg version="1.1" xmlns="http://www.w3.org/2000/svg" xmlns:xlink="http://www.w3.org/1999/xlink" x="0px" y="0px" width="24px"
	 height="24px" viewBox="0 0 24 24" enable-background="new 0 0 24 24" xml:space="preserve">
<g id="Layer_1">
	<path d="M24,24H0v-1.5h24V24z M22.018,18.974h-1.5V5.404h1.5V18.974z M16.021,18.974h-1.5V0h1.5V18.974z M9.9,18.974H8.4V8.402h1.5
		V18.974z M3.779,18.974h-1.5V5.404h1.5V18.974z"/>
</g>
<g id="Layer_2">
</g>
</svg>
