<?xml version="1.0" encoding="utf-8"?>
<!-- Generator: Adobe Illustrator 19.1.1, SVG Export Plug-In . SVG Version: 6.00 Build 0)  -->
<svg version="1.1" xmlns="http://www.w3.org/2000/svg" xmlns:xlink="http://www.w3.org/1999/xlink" x="0px" y="0px" width="24px"
	 height="24px" viewBox="0 0 24 24" enable-background="new 0 0 24 24" xml:space="preserve">
<g id="Layer_1">
	<path d="M16.992,19.575v-6.239c0-1.279-0.37-2.56-1.877-2.56c-1.507,0-2.136,1.281-2.136,2.591v6.208H8.959V8.15h4.019v1.538
		c1.058-1.344,1.977-1.898,3.643-1.898C18.289,7.79,21,8.568,21,13.08v6.495H16.992z M5.245,6.457C4.005,6.457,3,5.555,3,4.442
		c0-1.114,1.005-2.017,2.245-2.017c1.239,0,2.244,0.903,2.244,2.017C7.489,5.555,6.484,6.457,5.245,6.457z M7.25,19.575H3.224V8.15
		H7.25V19.575z"/>
</g>
<g id="Layer_2">
</g>
</svg>
