<?xml version="1.0" encoding="utf-8"?>
<!-- Generator: Adobe Illustrator 19.1.1, SVG Export Plug-In . SVG Version: 6.00 Build 0)  -->
<svg version="1.1" xmlns="http://www.w3.org/2000/svg" xmlns:xlink="http://www.w3.org/1999/xlink" x="0px" y="0px" width="24px"
	 height="24px" viewBox="0 0 24 24" enable-background="new 0 0 24 24" xml:space="preserve">
<g id="Layer_1">
	<path d="M14.217,7.545c0-1.222-0.994-2.217-2.217-2.217S9.783,6.323,9.783,7.545S10.777,9.762,12,9.762S14.217,8.767,14.217,7.545z
		 M12,8.262c-0.396,0-0.717-0.322-0.717-0.717S11.604,6.828,12,6.828s0.717,0.322,0.717,0.717S12.396,8.262,12,8.262z M11.25,11.212
		h1.5v7.333h-1.5V11.212z M23.75,11.945c0,6.479-5.271,11.75-11.75,11.75S0.25,18.424,0.25,11.945c0-5.87,4.379-10.874,10.186-11.64
		l0.195,1.487C5.568,2.46,1.75,6.825,1.75,11.945c0,5.652,4.598,10.25,10.25,10.25s10.25-4.598,10.25-10.25
		c0-5.12-3.818-9.485-8.881-10.153l0.195-1.487C19.371,1.072,23.75,6.075,23.75,11.945z"/>
</g>
<g id="Layer_2">
</g>
</svg>
