<?xml version="1.0" encoding="utf-8"?>
<!-- Generator: Adobe Illustrator 19.1.1, SVG Export Plug-In . SVG Version: 6.00 Build 0)  -->
<svg version="1.1" xmlns="http://www.w3.org/2000/svg" xmlns:xlink="http://www.w3.org/1999/xlink" x="0px" y="0px" width="24px"
	 height="24px" viewBox="0 0 24 24" enable-background="new 0 0 24 24" xml:space="preserve">
<g id="Layer_1">
	<path d="M23.796,8.071L12,1.719L0.204,8.071L12,14.423L23.796,8.071z M12,3.423l8.632,4.648L12,12.719L3.368,8.071L12,3.423z
		 M22.67,11.327l0.66,1.347L12,18.234L0.67,12.673l0.66-1.347L12,16.563L22.67,11.327z M22.67,15.357l0.66,1.346L12,22.265
		L0.67,16.703l0.66-1.346L12,20.593L22.67,15.357z"/>
</g>
<g id="Layer_2">
</g>
</svg>
