<?xml version="1.0" encoding="utf-8"?>
<!-- Generator: Adobe Illustrator 19.1.1, SVG Export Plug-In . SVG Version: 6.00 Build 0)  -->
<svg version="1.1" xmlns="http://www.w3.org/2000/svg" xmlns:xlink="http://www.w3.org/1999/xlink" x="0px" y="0px" width="24px"
	 height="24px" viewBox="0 0 24 24" enable-background="new 0 0 24 24" xml:space="preserve">
<g id="Layer_1">
	<path d="M2.605,5.324C2.68,5.328,2.753,5.331,2.826,5.331c0.504,0,0.953-0.118,1.341-0.313l4.314,4.161l1.041-1.08L5.227,3.956
		C5.233,3.943,5.244,3.934,5.25,3.92c0.379-0.846,0.192-1.855-0.464-2.511L3.726,0.349L0.544,3.53l1.775,1.777L2.605,5.324z
		 M3.726,2.47L3.726,2.47c0.22,0.219,0.281,0.556,0.155,0.837c-0.138,0.307-0.467,0.49-0.921,0.52L2.665,3.531L3.726,2.47z
		 M19.722,20.419l-4.099-4.099l1.061-1.061l4.099,4.099L19.722,20.419z M23.666,21.443c-0.675,1.484-2.194,2.339-4.115,2.339
		c-0.149,0-0.302-0.005-0.456-0.016l-0.28-0.019l-5.77-5.769l1.061-1.061l5.364,5.363c1.401,0.004,2.395-0.501,2.831-1.46
		c0.388-0.852,0.202-1.869-0.46-2.532l-4.554-4.553l1.061-1.061l4.554,4.553C24.004,18.333,24.311,20.026,23.666,21.443z
		 M13.049,8.527c-0.895-1.979-0.464-4.34,1.073-5.875l1.37-1.371l1.061,1.061l-1.37,1.371c-1.098,1.098-1.406,2.784-0.768,4.197
		c0.736,1.627,2.47,2.509,4.744,2.431l2.696-2.696l-0.53-0.53l-1.494,1.492L19.55,8.625c-1.684,0.105-3.029-0.587-3.608-1.864
		c-0.513-1.131-0.267-2.481,0.611-3.36l0.53-0.53L15.492,1.28l1.061-1.061l2.651,2.651l-1.591,1.591
		c-0.439,0.439-0.563,1.115-0.306,1.68c0.287,0.634,0.962,0.989,1.873,0.995l2.145-2.143l2.651,2.651l-1.061,1.061l-3.102,3.101
		l-0.282,0.018c-0.21,0.013-0.417,0.02-0.62,0.02C16.166,11.844,14,10.631,13.049,8.527z M3.22,20.977v-1.5h1.5v1.5H3.22z
		 M14.099,12.603l-1.055,1.066l-2.976-2.941l1.055-1.066L14.099,12.603z M11.1,14.172l1.213,0.883l-5.714,7.847
		C5.891,23.609,4.949,24,3.947,24c-1.001,0-1.943-0.39-2.652-1.099c-0.708-0.708-1.099-1.649-1.099-2.651
		c0-1.001,0.391-1.943,1.099-2.651l0.09-0.076l7.76-5.638l0.881,1.214l-7.708,5.6c-0.401,0.421-0.621,0.97-0.621,1.552
		c0,0.602,0.234,1.166,0.659,1.591c0.839,0.838,2.29,0.854,3.143,0.038L11.1,14.172z"/>
</g>
<g id="Layer_2">
</g>
</svg>
