<?xml version="1.0" encoding="utf-8"?>
<!-- Generator: Adobe Illustrator 19.1.1, SVG Export Plug-In . SVG Version: 6.00 Build 0)  -->
<svg version="1.1" xmlns="http://www.w3.org/2000/svg" xmlns:xlink="http://www.w3.org/1999/xlink" x="0px" y="0px" width="24px"
	 height="24px" viewBox="0 0 24 24" enable-background="new 0 0 24 24" xml:space="preserve">
<g id="Layer_1">
	<path d="M19.5,9.75C19.5,4.374,15.126,0,9.75,0S0,4.374,0,9.75s4.374,9.75,9.75,9.75S19.5,15.126,19.5,9.75z M9.75,18
		C5.201,18,1.5,14.299,1.5,9.75S5.201,1.5,9.75,1.5S18,5.201,18,9.75S14.299,18,9.75,18z M24,21.75c0,0.602-0.233,1.167-0.658,1.592
		S22.353,24,21.751,24c-0.603,0-1.167-0.233-1.592-0.658l-4.182-4.054l1.045-1.076l4.19,4.062c0.298,0.298,0.784,0.292,1.068,0.008
		c0.142-0.142,0.219-0.33,0.219-0.531s-0.077-0.389-0.219-0.529l-4.069-4.198l1.076-1.045l4.062,4.189
		C23.767,20.583,24,21.148,24,21.75z M6.572,6.566c-1.754,1.755-1.754,4.61,0,6.363L5.511,13.99c-2.339-2.338-2.339-6.144,0-8.484
		L6.572,6.566z"/>
</g>
<g id="Layer_2">
</g>
</svg>
