<svg version="1.1"
     viewBox="0 0 288 216"
     preserveAspectRatio="xMidYMid meet"
     xmlns="http://www.w3.org/2000/svg"
     xmlns:xlink="http://www.w3.org/1999/xlink"
     xml:space="preserve">
    <g id="callouts">
        <g>
            <rect x="158.5" y="0" class="st0" width="144" height="144"/>
            <path d="M230.499,144l35.962-35.963c9.236-9.216,14.951-21.959,14.951-36.037c0-28.118-22.794-50.912-50.911-50.912
                c-28.118,0-50.911,22.794-50.911,50.912c0,14.059,5.698,26.787,14.912,36"/>
            <circle cx="230.5" cy="72" r="50.911"/>
            <text transform="matrix(1 0 0 1 215.8602 86.4956)" class="st1 st2 st3">1</text>
        </g>
        <g>
            <rect x="321.5" y="2" class="st0" width="144" height="144"/>
            <path d="M393.499,146l35.962-35.963c9.236-9.216,14.951-21.959,14.951-36.037c0-28.118-22.794-50.912-50.911-50.912
                c-28.118,0-50.911,22.794-50.911,50.912c0,14.059,5.698,26.787,14.912,36"/>
            <circle cx="393.5" cy="74" r="50.911"/>
            <text transform="matrix(1 0 0 1 378.8602 88.4956)" class="st1 st2 st3">2</text>
        </g>
        <g>
            <rect x="471.5" y="2" class="st0" width="144" height="144"/>
            <path d="M543.499,146l35.962-35.963c9.236-9.216,14.951-21.959,14.951-36.037c0-28.118-22.794-50.912-50.911-50.912
                c-28.118,0-50.912,22.794-50.912,50.912c0,14.059,5.698,26.787,14.912,36"/>
            <circle cx="543.5" cy="74" r="50.911"/>
            <text transform="matrix(1 0 0 1 528.8602 88.4956)" class="st1 st2 st3">3</text>
        </g>
        <g>
            <rect x="397.5" y="145" class="st0" width="144" height="144"/>
            <path d="M469.499,289l35.962-35.963c9.236-9.216,14.951-21.959,14.951-36.037c0-28.118-22.794-50.911-50.912-50.911
                c-28.118,0-50.911,22.794-50.911,50.911c0,14.059,5.698,26.787,14.912,36"/>
            <circle cx="469.5" cy="217" r="50.911"/>
            <text transform="matrix(1 0 0 1 454.8602 231.4956)" class="st1 st2 st3">4</text>
        </g>
        <g>
            <rect x="697.5" y="125" class="st0" width="144" height="144"/>
            <path d="M769.499,269l35.962-35.963c9.236-9.216,14.951-21.959,14.951-36.037c0-28.118-22.794-50.911-50.911-50.911
                c-28.118,0-50.911,22.794-50.911,50.911c0,14.059,5.698,26.787,14.912,36"/>
            <circle cx="769.5" cy="197" r="50.911"/>
            <text transform="matrix(1 0 0 1 754.8602 211.4956)" class="st1 st2 st3">6</text>
        </g>
        <g>
            <rect x="587.5" y="325" class="st0" width="144" height="144"/>
            <path d="M659.499,469l35.962-35.963c9.236-9.216,14.951-21.959,14.951-36.037c0-28.118-22.794-50.911-50.911-50.911
                c-28.118,0-50.911,22.794-50.911,50.911c0,14.059,5.698,26.787,14.912,36"/>
            <circle cx="659.5" cy="397" r="50.911"/>
            <text transform="matrix(1 0 0 1 644.8602 411.4956)" class="st1 st2 st3">7</text>
        </g>
        <g>
            <rect x="187.5" y="155" class="st0" width="144" height="144"/>
            <path d="M259.499,299l35.962-35.963c9.236-9.216,14.951-21.959,14.951-36.037c0-28.118-22.794-50.911-50.911-50.911
                c-28.118,0-50.911,22.794-50.911,50.911c0,14.059,5.698,26.787,14.912,36"/>
            <circle cx="259.5" cy="227" r="50.911"/>
            <text transform="matrix(1 0 0 1 244.8602 241.4956)" class="st1 st2 st3">5</text>
        </g>
    </g>
</svg>